{
  "$schema": "http://json-schema.org/draft-04/schema#",
  "type": "array",
  "items": [
    {
      "type": "object",
      "properties": {
        "title": {
          "type": "string"
        },
        "type": {
          "type": "string"
        },
        "items": {
          "type": "array",
          "items": [
            {
              "type": "object",
              "properties": {
                "title": {
                  "type": "string"
                },
                "imageUrl": {
                  "type": "string"
                },
                "videoUrl": {
                  "type": "string"
                },
                "description": {
                  "type": "string"
                }
              },
              "required": [
                "title",
                "imageUrl",
                "videoUrl",
                "description"
              ]
            },
            {
              "type": "object",
              "properties": {
                "title": {
                  "type": "string"
                },
                "imageUrl": {
                  "type": "string"
                },
                "videoUrl": {
                  "type": "string"
                },
                "description": {
                  "type": "string"
                }
              },
              "required": [
                "title",
                "imageUrl",
                "videoUrl",
                "description"
              ]
            },
            {
              "type": "object",
              "properties": {
                "title": {
                  "type": "string"
                },
                "imageUrl": {
                  "type": "string"
                },
                "description": {
                  "type": "string"
                }
              },
              "required": [
                "title",
                "imageUrl",
                "description"
              ]
            },
            {
              "type": "object",
              "properties": {
                "title": {
                  "type": "string"
                },
                "imageUrl": {
                  "type": "string"
                },
                "videoUrl": {
                  "type": "string"
                },
                "description": {
                  "type": "string"
                }
              },
              "required": [
                "title",
                "imageUrl",
                "videoUrl",
                "description"
              ]
            }
          ]
        }
      },
      "required": [
        "title",
        "type",
        "items"
      ]
    },
    {
      "type": "object",
      "properties": {
        "title": {
          "type": "string"
        },
        "type": {
          "type": "string"
        },
        "items": {
          "type": "array",
          "items": [
            {
              "type": "object",
              "properties": {
                "title": {
                  "type": "string"
                },
                "imageUrl": {
                  "type": "string"
                },
                "videoUrl": {
                  "type": "string"
                },
                "description": {
                  "type": "string"
                }
              },
              "required": [
                "title",
                "imageUrl",
                "videoUrl",
                "description"
              ]
            },
            {
              "type": "object",
              "properties": {
                "title": {
                  "type": "string"
                },
                "imageUrl": {
                  "type": "string"
                },
                "description": {
                  "type": "string"
                }
              },
              "required": [
                "title",
                "imageUrl",
                "description"
              ]
            },
            {
              "type": "object",
              "properties": {
                "title": {
                  "type": "string"
                },
                "imageUrl": {
                  "type": "string"
                },
                "videoUrl": {
                  "type": "string"
                },
                "description": {
                  "type": "string"
                }
              },
              "required": [
                "title",
                "imageUrl",
                "videoUrl",
                "description"
              ]
            },
            {
              "type": "object",
              "properties": {
                "title": {
                  "type": "string"
                },
                "imageUrl": {
                  "type": "string"
                },
                "description": {
                  "type": "string"
                }
              },
              "required": [
                "title",
                "imageUrl",
                "description"
              ]
            }
          ]
        }
      },
      "required": [
        "title",
        "type",
        "items"
      ]
    }
  ]
}